Year 1/QUARTER 1/Digital Techniques projects/week1/ex2-nandgate/simulation/qsim/nandgates.msim.vcd
$comment
	File created using the following command:
		vcd file nandgates.msim.vcd -direction
$end
$date
	Thu Sep 05 16:26:26 2024
$end
$version
	ModelSim Version 2020.1
$end
$timescale
	1ps
$end

$scope module nandgates_vlg_vec_tst $end
$var reg 1 ! a $end
$var reg 1 " b $end
$var wire 1 # L $end

$scope module i1 $end
$var wire 1 $ gnd $end
$var wire 1 % vcc $end
$var wire 1 & unknown $end
$var tri1 1 ' devclrn $end
$var tri1 1 ( devpor $end
$var tri1 1 ) devoe $end
$var wire 1 * ~QUARTUS_CREATED_GND~I_combout $end
$var wire 1 + ~QUARTUS_CREATED_UNVM~~busy $end
$var wire 1 , ~QUARTUS_CREATED_ADC1~~eoc $end
$var wire 1 - L~output_o $end
$var wire 1 . b~input_o $end
$var wire 1 / a~input_o $end
$var wire 1 0 inst2~0_combout $end
$upscope $end
$upscope $end
$enddefinitions $end
#0
$dumpvars
0!
0"
0#
0$
1%
x&
1'
1(
1)
0*
z+
z,
0-
0.
0/
00
$end
#40000
1!
1/
10
1-
1#
#80000
1"
1.
00
0-
0#
#160000
0!
0/
10
1-
1#
#300000
1!
1/
00
0-
0#
#360000
0"
0.
10
1-
1#
#420000
1"
1.
00
0-
0#
#440000
0!
0/
10
1-
1#
#480000
0"
0.
00
0-
0#
#540000
1!
1/
10
1-
1#
#560000
1"
1.
00
0-
0#
#660000
0!
0/
10
1-
1#
#780000
1!
1/
00
0-
0#
#880000
0"
0.
10
1-
1#
#920000
0!
0/
00
0-
0#
