Year 1/QUARTER 1/Digital Techniques projects/week5/simulation/qsim/ex1latch.msim.vcd
$comment
	File created using the following command:
		vcd file ex1latch.msim.vcd -direction
$end
$date
	Sun Oct 06 12:56:10 2024
$end
$version
	ModelSim Version 2020.1
$end
$timescale
	1ps
$end

$scope module ex1latch_vlg_vec_tst $end
$var reg 1 ! DATA $end
$var reg 1 " ENABLE $end
$var wire 1 # OUT $end
$var wire 1 $ OUTA $end
$var wire 1 % OUTB $end

$scope module i1 $end
$var wire 1 & gnd $end
$var wire 1 ' vcc $end
$var wire 1 ( unknown $end
$var tri1 1 ) devclrn $end
$var tri1 1 * devpor $end
$var tri1 1 + devoe $end
$var wire 1 , ~QUARTUS_CREATED_GND~I_combout $end
$var wire 1 - ~QUARTUS_CREATED_UNVM~~busy $end
$var wire 1 . ~QUARTUS_CREATED_ADC1~~eoc $end
$var wire 1 / OUT~output_o $end
$var wire 1 0 OUTA~output_o $end
$var wire 1 1 OUTB~output_o $end
$var wire 1 2 DATA~input_o $end
$var wire 1 3 ENABLE~input_o $end
$var wire 1 4 ENABLE~inputclkctrl_outclk $end
$var wire 1 5 inst~combout $end
$var wire 1 6 inst1~combout $end
$var wire 1 7 inst2~combout $end
$upscope $end
$upscope $end
$enddefinitions $end
#0
$dumpvars
0!
0"
x#
x$
x%
0&
1'
x(
1)
1*
1+
0,
z-
z.
x/
x0
x1
02
03
04
x5
x6
x7
$end
#10000
1!
12
#20000
1"
0!
02
13
14
05
00
0$
06
01
0%
07
0/
0#
#30000
1!
12
15
10
1$
16
11
1%
17
1/
1#
#40000
0"
0!
02
03
04
#50000
1!
12
#60000
1"
0!
02
13
14
05
00
0$
06
01
0%
07
0/
0#
#70000
1!
12
15
10
1$
16
11
1%
17
1/
1#
#80000
0"
0!
02
03
04
#90000
1!
12
#100000
1"
0!
02
13
14
05
00
0$
06
01
0%
07
0/
0#
#110000
1!
12
15
10
1$
16
11
1%
17
1/
1#
#120000
0"
0!
02
03
04
#130000
1!
12
#140000
1"
0!
02
13
14
05
00
0$
06
01
0%
07
0/
0#
#150000
1!
12
15
10
1$
16
11
1%
17
1/
1#
#160000
0"
0!
02
03
04
#170000
1!
12
#180000
1"
0!
02
13
14
05
00
0$
06
01
0%
07
0/
0#
#190000
1!
12
15
10
1$
16
11
1%
17
1/
1#
#200000
0"
0!
02
03
04
#210000
1!
12
#220000
1"
0!
02
13
14
05
00
0$
06
01
0%
07
0/
0#
#230000
1!
12
15
10
1$
16
11
1%
17
1/
1#
#240000
0"
0!
02
03
04
#250000
1!
12
#260000
1"
0!
02
13
14
05
00
0$
06
01
0%
07
0/
0#
#270000
1!
12
15
10
1$
16
11
1%
17
1/
1#
#280000
0"
0!
02
03
04
#290000
1!
12
#300000
1"
0!
02
13
14
05
00
0$
06
01
0%
07
0/
0#
#310000
1!
12
15
10
1$
16
11
1%
17
1/
1#
#320000
0"
0!
02
03
04
#330000
1!
12
#340000
1"
0!
02
13
14
05
00
0$
06
01
0%
07
0/
0#
#350000
1!
12
15
10
1$
16
11
1%
17
1/
1#
#360000
0"
0!
02
03
04
#370000
1!
12
#380000
1"
0!
02
13
14
05
00
0$
06
01
0%
07
0/
0#
#390000
1!
12
15
10
1$
16
11
1%
17
1/
1#
#400000
0"
0!
02
03
04
#410000
1!
12
#420000
1"
0!
02
13
14
05
00
0$
06
01
0%
07
0/
0#
#430000
1!
12
15
10
1$
16
11
1%
17
1/
1#
#440000
0"
0!
02
03
04
#450000
1!
12
#460000
1"
0!
02
13
14
05
00
0$
06
01
0%
07
0/
0#
#470000
1!
12
15
10
1$
16
11
1%
17
1/
1#
#480000
0"
0!
02
03
04
#490000
1!
12
#500000
1"
0!
02
13
14
05
00
0$
06
01
0%
07
0/
0#
#510000
1!
12
15
10
1$
16
11
1%
17
1/
1#
#520000
0"
0!
02
03
04
#530000
1!
12
#540000
1"
0!
02
13
14
05
00
0$
06
01
0%
07
0/
0#
#550000
1!
12
15
10
1$
16
11
1%
17
1/
1#
#560000
0"
0!
02
03
04
#570000
1!
12
#580000
1"
0!
02
13
14
05
00
0$
06
01
0%
07
0/
0#
#590000
1!
12
15
10
1$
16
11
1%
17
1/
1#
#600000
0"
0!
02
03
04
#610000
1!
12
#620000
1"
0!
02
13
14
05
00
0$
06
01
0%
07
0/
0#
#630000
1!
12
15
10
1$
16
11
1%
17
1/
1#
#640000
0"
0!
02
03
04
#650000
1!
12
#660000
1"
0!
02
13
14
05
00
0$
06
01
0%
07
0/
0#
#670000
1!
12
15
10
1$
16
11
1%
17
1/
1#
#680000
0"
0!
02
03
04
#690000
1!
12
#700000
1"
0!
02
13
14
05
00
0$
06
01
0%
07
0/
0#
#710000
1!
12
15
10
1$
16
11
1%
17
1/
1#
#720000
0"
0!
02
03
04
#730000
1!
12
#740000
1"
0!
02
13
14
05
00
0$
06
01
0%
07
0/
0#
#750000
1!
12
15
10
1$
16
11
1%
17
1/
1#
#760000
0"
0!
02
03
04
#770000
1!
12
#780000
1"
0!
02
13
14
05
00
0$
06
01
0%
07
0/
0#
#790000
1!
12
15
10
1$
16
11
1%
17
1/
1#
#800000
0"
0!
02
03
04
#810000
1!
12
#820000
1"
0!
02
13
14
05
00
0$
06
01
0%
07
0/
0#
#830000
1!
12
15
10
1$
16
11
1%
17
1/
1#
#840000
0"
0!
02
03
04
#850000
1!
12
#860000
1"
0!
02
13
14
05
00
0$
06
01
0%
07
0/
0#
#870000
1!
12
15
10
1$
16
11
1%
17
1/
1#
#880000
0"
0!
02
03
04
#890000
1!
12
#900000
1"
0!
02
13
14
05
00
0$
06
01
0%
07
0/
0#
#910000
1!
12
15
10
1$
16
11
1%
17
1/
1#
#920000
0"
0!
02
03
04
#930000
1!
12
#940000
1"
0!
02
13
14
05
00
0$
06
01
0%
07
0/
0#
#950000
1!
12
15
10
1$
16
11
1%
17
1/
1#
#960000
0"
0!
02
03
04
#970000
1!
12
#980000
1"
0!
02
13
14
05
00
0$
06
01
0%
07
0/
0#
#990000
1!
12
15
10
1$
16
11
1%
17
1/
1#
