Year 1/QUARTER 1/Digital Techniques projects/week5/simulation/qsim/ex2dflipflop.msim.vcd
$comment
	File created using the following command:
		vcd file ex2dflipflop.msim.vcd -direction
$end
$date
	Tue Oct 08 15:06:42 2024
$end
$version
	ModelSim Version 2020.1
$end
$timescale
	1ps
$end

$scope module ex2dflipflop_vlg_vec_tst $end
$var reg 1 ! CLK $end
$var reg 1 " DATA $end
$var wire 1 # OUTA $end
$var wire 1 $ OUTB $end
$var wire 1 % OUTC $end

$scope module i1 $end
$var wire 1 & gnd $end
$var wire 1 ' vcc $end
$var wire 1 ( unknown $end
$var tri1 1 ) devclrn $end
$var tri1 1 * devpor $end
$var tri1 1 + devoe $end
$var wire 1 , ~QUARTUS_CREATED_GND~I_combout $end
$var wire 1 - ~QUARTUS_CREATED_UNVM~~busy $end
$var wire 1 . ~QUARTUS_CREATED_ADC1~~eoc $end
$var wire 1 / OUTA~output_o $end
$var wire 1 0 OUTB~output_o $end
$var wire 1 1 OUTC~output_o $end
$var wire 1 2 CLK~input_o $end
$var wire 1 3 CLK~inputclkctrl_outclk $end
$var wire 1 4 DATA~input_o $end
$var wire 1 5 inst~feeder_combout $end
$var wire 1 6 inst~q $end
$var wire 1 7 inst5~feeder_combout $end
$var wire 1 8 inst5~q $end
$var wire 1 9 inst6~feeder_combout $end
$var wire 1 : inst6~q $end
$upscope $end
$upscope $end
$enddefinitions $end
#0
$dumpvars
0!
0"
0#
0$
0%
0&
1'
x(
1)
1*
1+
0,
z-
z.
0/
00
01
02
03
04
05
06
07
08
09
0:
$end
#20000
1"
14
15
#40000
0"
04
05
#50000
1!
12
13
#60000
1"
14
15
#80000
0"
04
05
#100000
0!
1"
14
02
03
15
#120000
0"
04
05
#140000
1"
14
15
#150000
1!
12
13
16
1/
1#
17
#160000
0"
04
05
#180000
1"
14
15
#200000
0!
0"
04
02
03
05
#220000
1"
14
15
#240000
0"
04
05
#250000
1!
12
13
18
06
0/
10
1$
0#
19
07
#260000
1"
14
15
#280000
0"
04
05
#300000
0!
1"
14
02
03
15
#320000
0"
04
05
#340000
1"
14
15
#350000
1!
12
13
1:
08
16
1/
00
11
1%
0$
1#
09
17
#360000
0"
04
05
#380000
1"
14
15
#400000
0!
0"
04
02
03
05
#420000
1"
14
15
#440000
0"
04
05
#450000
1!
12
13
0:
18
06
0/
10
01
0%
1$
0#
19
07
#460000
1"
14
15
#480000
0"
04
05
#500000
0!
1"
14
02
03
15
#520000
0"
04
05
#540000
1"
14
15
#550000
1!
12
13
1:
08
16
1/
00
11
1%
0$
1#
09
17
#560000
0"
04
05
#580000
1"
14
15
#600000
0!
0"
04
02
03
05
#620000
1"
14
15
#640000
0"
04
05
#650000
1!
12
13
0:
18
06
0/
10
01
0%
1$
0#
19
07
#660000
1"
14
15
#680000
0"
04
05
#700000
0!
1"
14
02
03
15
#720000
0"
04
05
#740000
1"
14
15
#750000
1!
12
13
1:
08
16
1/
00
11
1%
0$
1#
09
17
#760000
0"
04
05
#780000
1"
14
15
#800000
0!
0"
04
02
03
05
#820000
1"
14
15
#840000
0"
04
05
#850000
1!
12
13
0:
18
06
0/
10
01
0%
1$
0#
19
07
#860000
1"
14
15
#880000
0"
04
05
#900000
0!
1"
14
02
03
15
#920000
0"
04
05
#940000
1"
14
15
#950000
1!
12
13
1:
08
16
1/
00
11
1%
0$
1#
09
17
#960000
0"
04
05
#980000
1"
14
15
