Year 1/QUARTER 1/Digital Techniques projects/week5/simulation/qsim/ex3frequencydivider.msim.vcd
$comment
	File created using the following command:
		vcd file ex3frequencydivider.msim.vcd -direction
$end
$date
	Tue Oct 08 14:32:28 2024
$end
$version
	ModelSim Version 2020.1
$end
$timescale
	1ps
$end

$scope module ex3frequencydivider_vlg_vec_tst $end
$var reg 1 ! pin43 $end
$var wire 1 " led0 $end
$var wire 1 # led1 $end

$scope module i1 $end
$var wire 1 $ gnd $end
$var wire 1 % vcc $end
$var wire 1 & unknown $end
$var tri1 1 ' devclrn $end
$var tri1 1 ( devpor $end
$var tri1 1 ) devoe $end
$var wire 1 * ~QUARTUS_CREATED_GND~I_combout $end
$var wire 1 + ~QUARTUS_CREATED_UNVM~~busy $end
$var wire 1 , ~QUARTUS_CREATED_ADC1~~eoc $end
$var wire 1 - led0~output_o $end
$var wire 1 . led1~output_o $end
$var wire 1 / pin43~input_o $end
$var wire 1 0 inst~0_combout $end
$var wire 1 1 inst~q $end
$upscope $end
$upscope $end
$enddefinitions $end
#0
$dumpvars
0!
0"
0#
0$
1%
x&
1'
1(
1)
0*
z+
z,
0-
0.
0/
10
01
$end
#50000
1!
1/
1-
1"
11
1.
1#
00
#100000
0!
0/
0-
0"
#150000
1!
1/
1-
1"
01
0.
0#
10
#200000
0!
0/
0-
0"
#250000
1!
1/
1-
1"
11
1.
1#
00
#300000
0!
0/
0-
0"
#350000
1!
1/
1-
1"
01
0.
0#
10
#400000
0!
0/
0-
0"
#450000
1!
1/
1-
1"
11
1.
1#
00
#500000
0!
0/
0-
0"
#550000
1!
1/
1-
1"
01
0.
0#
10
#600000
0!
0/
0-
0"
#650000
1!
1/
1-
1"
11
1.
1#
00
#700000
0!
0/
0-
0"
#750000
1!
1/
1-
1"
01
0.
0#
10
#800000
0!
0/
0-
0"
#850000
1!
1/
1-
1"
11
1.
1#
00
#900000
0!
0/
0-
0"
#950000
1!
1/
1-
1"
01
0.
0#
10
