Year 1/QUARTER 1/Digital Techniques projects/week2/ex2-combinationalcircuit/simulation/qsim/combinationalcircuit.msim.vcd
$comment
	File created using the following command:
		vcd file combinationalcircuit.msim.vcd -direction
$end
$date
	Fri Sep 13 11:36:16 2024
$end
$version
	ModelSim Version 2020.1
$end
$timescale
	1ps
$end

$scope module combinationalcircuit_vlg_vec_tst $end
$var reg 1 ! x $end
$var reg 1 " y $end
$var reg 1 # z $end
$var wire 1 $ out1 $end
$var wire 1 % out2 $end

$scope module i1 $end
$var wire 1 & gnd $end
$var wire 1 ' vcc $end
$var wire 1 ( unknown $end
$var tri1 1 ) devclrn $end
$var tri1 1 * devpor $end
$var tri1 1 + devoe $end
$var wire 1 , ~QUARTUS_CREATED_GND~I_combout $end
$var wire 1 - ~QUARTUS_CREATED_UNVM~~busy $end
$var wire 1 . ~QUARTUS_CREATED_ADC1~~eoc $end
$var wire 1 / out1~output_o $end
$var wire 1 0 out2~output_o $end
$var wire 1 1 x~input_o $end
$var wire 1 2 z~input_o $end
$var wire 1 3 y~input_o $end
$var wire 1 4 inst2~0_combout $end
$var wire 1 5 inst5~0_combout $end
$upscope $end
$upscope $end
$enddefinitions $end
#0
$dumpvars
0!
0"
0#
0$
0%
0&
1'
x(
1)
1*
1+
0,
z-
z.
0/
00
01
02
03
04
05
$end
#10000
1!
11
14
1/
1$
#80000
1"
13
15
04
0/
10
1%
0$
#180000
1#
0!
01
12
#230000
0"
03
05
14
1/
00
0%
1$
#280000
1!
11
15
04
0/
10
1%
0$
#340000
1"
13
14
1/
1$
#400000
0"
03
04
0/
0$
#520000
0#
02
05
14
1/
00
0%
1$
#530000
0!
01
04
0/
0$
#570000
1#
12
14
1/
1$
#640000
1"
13
15
04
0/
10
1%
0$
#650000
0#
02
05
14
1/
00
0%
1$
#710000
1!
1#
12
11
15
10
1%
#900000
0"
03
04
0/
0$
